# Blender v2.78 (sub 0) OBJ File: ''
# www.blender.org
mtllib pickup.mtl
o Icosphere
v 0.000004 -0.253269 0.000000
v 0.183253 -0.113250 0.133151
v -0.070010 -0.113249 0.215423
v -0.226519 -0.113262 0.000000
v -0.070010 -0.113249 -0.215423
v 0.183254 -0.113250 -0.133151
v 0.070010 0.113249 0.215424
v -0.183253 0.113250 0.133151
v -0.183254 0.113250 -0.133151
v 0.070010 0.113249 -0.215423
v 0.226520 0.113262 0.000000
v -0.000004 0.253268 0.000000
v -0.018608 -0.097382 0.057243
v 0.048702 -0.097384 0.035388
v 0.030085 -0.060173 0.092619
v 0.097388 -0.060179 0.000000
v 0.048702 -0.097384 -0.035388
v -0.060178 -0.097392 0.000000
v -0.078778 -0.060173 0.057241
v -0.018607 -0.097382 -0.057243
v -0.078779 -0.060173 -0.057241
v 0.030085 -0.060173 -0.092619
v 0.108864 -0.000003 0.035388
v 0.108863 -0.000003 -0.035388
v -0.000000 0.000000 0.114464
v 0.067285 -0.000001 0.092597
v -0.108863 0.000003 0.035388
v -0.067285 0.000001 0.092597
v -0.067285 0.000001 -0.092597
v -0.108863 0.000003 -0.035388
v 0.067285 -0.000001 -0.092597
v 0.000000 0.000000 -0.114464
v 0.078778 0.060173 0.057240
v -0.030085 0.060173 0.092619
v -0.097388 0.060180 0.000000
v -0.030085 0.060173 -0.092619
v 0.078778 0.060173 -0.057241
v 0.018607 0.097382 0.057244
v 0.060178 0.097390 0.000000
v -0.048702 0.097384 0.035388
v -0.048702 0.097384 -0.035388
v 0.018608 0.097382 -0.057243
v 0.022186 -0.676414 -0.068309
v 0.515443 -0.238270 0.374494
v -0.254987 -0.282640 0.563722
v 0.457336 -0.282642 0.416694
v 0.515443 -0.238270 -0.374494
v 0.071833 -0.676422 0.000000
v -0.614928 -0.282643 -0.068309
v 0.022186 -0.676414 0.068309
v -0.125062 -0.282642 -0.605933
v 0.537625 -0.282640 -0.306187
v 0.443613 -0.354470 0.374500
v 0.579015 0.354475 0.042207
v -0.219075 -0.354473 0.537623
v 0.138780 0.354471 0.563718
v -0.579015 -0.354475 -0.042207
v -0.493253 0.354473 0.306175
v -0.138780 -0.354470 -0.563718
v -0.443613 0.354470 -0.374500
v 0.493253 -0.354473 -0.306175
v 0.219076 0.354473 -0.537623
v 0.125062 0.282642 0.605933
v -0.537625 0.282640 0.306188
v -0.457336 0.282642 -0.416694
v 0.254987 0.282640 -0.563721
v 0.614927 0.282643 0.068309
v 0.196883 0.238270 0.605930
v -0.071833 0.676422 0.000000
v -0.515443 0.238270 0.374494
v -0.515444 0.238270 -0.374494
v 0.196883 0.238270 -0.605930
v -0.196883 -0.238270 0.605929
v -0.058098 -0.676417 -0.042207
v 0.537625 -0.282640 0.306188
v 0.457336 -0.282642 -0.416694
v -0.058098 -0.676418 0.042207
v -0.637116 -0.238276 0.000000
v -0.125062 -0.282642 0.605933
v -0.196884 -0.238271 -0.605930
v -0.614928 -0.282642 0.068309
v -0.254987 -0.282640 -0.563722
v 0.579015 0.354475 -0.042207
v 0.443613 -0.354470 -0.374501
v 0.219076 0.354473 0.537623
v 0.493253 -0.354473 0.306175
v -0.443613 0.354470 0.374500
v -0.138780 -0.354470 0.563718
v -0.493253 0.354473 -0.306175
v -0.579015 -0.354475 0.042207
v 0.138780 0.354470 -0.563718
v -0.219075 -0.354473 -0.537623
v 0.614928 0.282642 -0.068309
v 0.254987 0.282640 0.563721
v -0.457336 0.282642 0.416694
v -0.537625 0.282640 -0.306188
v 0.125062 0.282642 -0.605933
v -0.022186 0.676412 -0.068309
v 0.637115 0.238276 0.000000
v 0.058098 0.676418 -0.042207
v 0.058098 0.676417 0.042207
v -0.022186 0.676414 0.068309
v 0.344099 0.558037 -0.250000
v 0.345231 0.557331 -0.249996
v 0.344444 0.557331 -0.251091
v -0.131437 0.558036 -0.404511
v -0.131076 0.557333 -0.405593
v -0.132363 0.557333 -0.405174
v -0.425327 0.558033 0.000000
v -0.426251 0.557334 -0.000677
v -0.426251 0.557334 0.000677
v -0.131436 0.558036 0.404512
v -0.132363 0.557332 0.405174
v -0.131076 0.557333 0.405593
v 0.344099 0.558037 0.250000
v 0.344444 0.557331 0.251091
v 0.345231 0.557332 0.249996
v 0.557898 0.132000 -0.404517
v 0.557678 0.130861 -0.405169
v 0.557105 0.132008 -0.405587
v -0.212316 0.132006 -0.655596
v -0.213012 0.130863 -0.655581
v -0.213582 0.132005 -0.655175
v -0.689119 0.132007 -0.000673
v -0.689322 0.130867 0.000000
v -0.689119 0.132007 0.000673
v -0.213582 0.132005 0.655176
v -0.213012 0.130863 0.655581
v -0.212316 0.132006 0.655596
v 0.557106 0.132008 0.405587
v 0.557677 0.130861 0.405169
v 0.557898 0.132000 0.404517
v 0.213012 -0.130863 -0.655581
v 0.213582 -0.132005 -0.655176
v 0.212316 -0.132006 -0.655596
v -0.557678 -0.130861 -0.405169
v -0.557106 -0.132008 -0.405587
v -0.557899 -0.132000 -0.404517
v -0.557677 -0.130861 0.405169
v -0.557899 -0.132000 0.404517
v -0.557105 -0.132008 0.405587
v 0.213012 -0.130863 0.655581
v 0.212316 -0.132006 0.655596
v 0.213582 -0.132005 0.655176
v 0.689322 -0.130867 0.000000
v 0.689119 -0.132007 0.000673
v 0.689119 -0.132007 -0.000673
v 0.132363 -0.557334 -0.405174
v 0.131436 -0.558037 -0.404511
v 0.131076 -0.557333 -0.405593
v -0.344444 -0.557331 -0.251091
v -0.344099 -0.558037 -0.250000
v -0.345231 -0.557332 -0.249996
v -0.345231 -0.557332 0.249996
v -0.344099 -0.558037 0.250000
v -0.344444 -0.557331 0.251091
v 0.426251 -0.557334 -0.000677
v 0.426251 -0.557334 0.000677
v 0.425327 -0.558034 0.000000
v 0.131076 -0.557333 0.405593
v 0.131437 -0.558037 0.404512
v 0.132363 -0.557333 0.405175
vt 0.0000 0.0000
vt 1.0000 0.0000
vt 1.0000 1.0000
vt 0.0000 0.0000
vt 1.0000 0.0000
vt 1.0000 1.0000
vt 1.0000 0.0000
vt 1.0000 1.0000
vt 1.0000 0.0000
vt 1.0000 1.0000
vt 1.0000 0.0000
vt 1.0000 1.0000
vt 1.0000 0.0000
vt 1.0000 1.0000
vt 0.0000 0.0000
vt 1.0000 0.0000
vt 1.0000 1.0000
vt 0.0000 0.0000
vt 1.0000 0.0000
vt 1.0000 1.0000
vt 0.0000 0.0000
vt 1.0000 0.0000
vt 1.0000 1.0000
vt 0.0000 0.0000
vt 1.0000 0.0000
vt 1.0000 1.0000
vt 1.0000 0.0000
vt 1.0000 1.0000
vt 1.0000 0.0000
vt 1.0000 1.0000
vt 1.0000 0.0000
vt 1.0000 1.0000
vt 1.0000 0.0000
vt 1.0000 1.0000
vt 1.0000 0.0000
vt 1.0000 1.0000
vt 0.0000 0.0000
vt 1.0000 0.0000
vt 1.0000 1.0000
vt 0.0000 0.0000
vt 1.0000 0.0000
vt 1.0000 1.0000
vt 0.0000 0.0000
vt 1.0000 0.0000
vt 1.0000 1.0000
vt 0.0000 0.0000
vt 1.0000 0.0000
vt 1.0000 1.0000
vt 0.0000 0.0000
vt 1.0000 0.0000
vt 1.0000 1.0000
vt 0.0000 0.0000
vt 1.0000 0.0000
vt 1.0000 1.0000
vt 1.0000 0.0000
vt 1.0000 1.0000
vt 0.0000 0.0000
vt 1.0000 0.0000
vt 1.0000 1.0000
vt 0.0000 0.0000
vt 1.0000 0.0000
vt 1.0000 1.0000
vt 1.0000 0.0000
vt 1.0000 1.0000
vt 0.0000 0.0000
vt 1.0000 0.0000
vt 1.0000 1.0000
vt 0.0000 0.0000
vt 1.0000 0.0000
vt 1.0000 1.0000
vt 1.0000 0.0000
vt 1.0000 1.0000
vt 0.0000 0.0000
vt 1.0000 0.0000
vt 1.0000 1.0000
vt 0.0000 0.0000
vt 1.0000 0.0000
vt 1.0000 1.0000
vt 1.0000 0.0000
vt 1.0000 1.0000
vt 0.0000 0.0000
vt 1.0000 0.0000
vt 1.0000 1.0000
vt 0.0000 0.0000
vt 1.0000 0.0000
vt 1.0000 1.0000
vt 1.0000 0.0000
vt 1.0000 1.0000
vt 0.0000 0.0000
vt 1.0000 0.0000
vt 1.0000 1.0000
vt 0.0000 0.0000
vt 1.0000 0.0000
vt 1.0000 1.0000
vt 1.0000 0.0000
vt 1.0000 1.0000
vt 0.0000 0.0000
vt 1.0000 0.0000
vt 1.0000 1.0000
vt 0.0000 0.0000
vt 1.0000 0.0000
vt 1.0000 1.0000
vt 1.0000 0.0000
vt 1.0000 1.0000
vt 0.0000 0.0000
vt 1.0000 0.0000
vt 1.0000 1.0000
vt 0.0000 0.0000
vt 1.0000 0.0000
vt 1.0000 1.0000
vt 1.0000 0.0000
vt 1.0000 1.0000
vt 0.0000 0.0000
vt 1.0000 0.0000
vt 1.0000 1.0000
vt 0.0000 0.0000
vt 1.0000 0.0000
vt 1.0000 1.0000
vt 1.0000 0.0000
vt 1.0000 1.0000
vt 0.0000 0.0000
vt 1.0000 0.0000
vt 1.0000 1.0000
vt 0.0000 0.0000
vt 1.0000 0.0000
vt 1.0000 1.0000
vt 1.0000 0.0000
vt 1.0000 1.0000
vt 0.0000 0.0000
vt 1.0000 0.0000
vt 1.0000 1.0000
vt 1.0000 0.0000
vt 1.0000 1.0000
vt 1.0000 0.0000
vt 1.0000 1.0000
vt 0.0000 0.0000
vt 1.0000 0.0000
vt 1.0000 1.0000
vt 1.0000 0.0000
vt 1.0000 1.0000
vt 1.0000 0.0000
vt 1.0000 1.0000
vt 0.0000 0.0000
vt 1.0000 0.0000
vt 1.0000 1.0000
vt 1.0000 0.0000
vt 1.0000 1.0000
vt 1.0000 0.0000
vt 1.0000 1.0000
vt 0.0000 0.0000
vt 1.0000 0.0000
vt 1.0000 1.0000
vt 1.0000 0.0000
vt 1.0000 1.0000
vt 1.0000 0.0000
vt 1.0000 1.0000
vt 0.0000 0.0000
vt 1.0000 0.0000
vt 1.0000 1.0000
vt 1.0000 0.0000
vt 1.0000 1.0000
vt 1.0000 0.0000
vt 1.0000 1.0000
vt 0.0000 0.0000
vt 1.0000 0.0000
vt 1.0000 1.0000
vt 0.0000 0.0000
vt 1.0000 0.0000
vt 1.0000 1.0000
vt 1.0000 0.0000
vt 1.0000 1.0000
vt 0.0000 0.0000
vt 1.0000 0.0000
vt 1.0000 1.0000
vt 1.0000 0.0000
vt 1.0000 1.0000
vt 1.0000 0.0000
vt 1.0000 1.0000
vt 0.0000 0.0000
vt 1.0000 0.0000
vt 1.0000 1.0000
vt 1.0000 0.0000
vt 1.0000 1.0000
vt 1.0000 0.0000
vt 1.0000 1.0000
vt 0.0000 0.0000
vt 1.0000 0.0000
vt 1.0000 1.0000
vt 1.0000 0.0000
vt 1.0000 1.0000
vt 1.0000 0.0000
vt 1.0000 1.0000
vt 0.0000 0.0000
vt 1.0000 1.0000
vt 1.0000 0.0000
vt 1.0000 1.0000
vt 1.0000 0.0000
vt 1.0000 1.0000
vt 1.0000 1.0000
vt 0.0000 0.0000
vt 1.0000 1.0000
vt 1.0000 1.0000
vt 0.0000 0.0000
vt 1.0000 0.0000
vt 0.0000 0.0000
vt 1.0000 0.0000
vt 0.0000 0.0000
vt 1.0000 0.0000
vt 0.0000 0.0000
vt 1.0000 1.0000
vt 1.0000 1.0000
vt 1.0000 0.0000
vt 0.0000 0.0000
vt 1.0000 0.0000
vt 1.0000 1.0000
vt 0.0000 0.0000
vt 1.0000 0.0000
vt 0.0000 0.0000
vt 1.0000 0.0000
vt 0.0000 0.0000
vt 0.0000 0.0000
vt 1.0000 0.0000
vt 1.0000 1.0000
vt 1.0000 0.0000
vt 0.0000 0.0000
vt 1.0000 1.0000
vt 1.0000 1.0000
vt 1.0000 0.0000
vt 0.0000 0.0000
vt 1.0000 0.0000
vt 0.0000 0.0000
vt 1.0000 0.0000
vt 0.0000 0.0000
vt 1.0000 1.0000
vt 1.0000 1.0000
vt 1.0000 0.0000
vt 0.0000 0.0000
vt 1.0000 1.0000
vt 1.0000 1.0000
vt 1.0000 0.0000
vt 0.0000 0.0000
vt 1.0000 0.0000
vt 0.0000 0.0000
vt 1.0000 0.0000
vt 0.0000 0.0000
vt 1.0000 1.0000
vt 1.0000 1.0000
vt 1.0000 0.0000
vt 0.0000 0.0000
vt 1.0000 1.0000
vt 1.0000 1.0000
vt 1.0000 0.0000
vt 0.0000 0.0000
vt 1.0000 0.0000
vt 0.0000 0.0000
vt 1.0000 0.0000
vt 0.0000 0.0000
vt 1.0000 1.0000
vt 1.0000 0.0000
vt 0.0000 0.0000
vt 1.0000 0.0000
vt 1.0000 1.0000
vt 1.0000 0.0000
vt 0.0000 0.0000
vt 1.0000 0.0000
vt 0.0000 0.0000
vt 1.0000 0.0000
vt 0.0000 0.0000
vt 1.0000 0.0000
vt 1.0000 1.0000
vt 1.0000 0.0000
vt 0.0000 0.0000
vt 1.0000 0.0000
vt 1.0000 1.0000
vt 0.0000 0.0000
vt 0.0000 0.0000
vt 1.0000 0.0000
vt 0.0000 0.0000
vt 0.0000 0.0000
vt 1.0000 0.0000
vt 1.0000 1.0000
vt 1.0000 0.0000
vt 0.0000 0.0000
vt 1.0000 0.0000
vt 1.0000 1.0000
vt 0.0000 0.0000
vt 0.0000 0.0000
vt 1.0000 0.0000
vt 0.0000 0.0000
vt 0.0000 0.0000
vt 1.0000 0.0000
vt 1.0000 1.0000
vt 1.0000 0.0000
vt 0.0000 0.0000
vt 1.0000 0.0000
vt 1.0000 1.0000
vt 0.0000 0.0000
vt 0.0000 0.0000
vt 1.0000 0.0000
vt 0.0000 0.0000
vt 0.0000 0.0000
vt 1.0000 0.0000
vt 1.0000 1.0000
vt 1.0000 0.0000
vt 0.0000 0.0000
vt 1.0000 0.0000
vt 1.0000 1.0000
vt 0.0000 0.0000
vt 0.0000 0.0000
vt 1.0000 0.0000
vt 0.0000 0.0000
vt 0.0000 0.0000
vt 1.0000 0.0000
vt 1.0000 1.0000
vt 1.0000 0.0000
vt 0.0000 0.0000
vt 1.0000 1.0000
vt 1.0000 1.0000
vt 1.0000 0.0000
vt 0.0000 0.0000
vt 1.0000 0.0000
vt 0.0000 0.0000
vt 1.0000 0.0000
vt 0.0000 0.0000
vt 1.0000 1.0000
vt 1.0000 0.0000
vt 0.0000 0.0000
vt 1.0000 1.0000
vt 1.0000 1.0000
vt 1.0000 0.0000
vt 0.0000 0.0000
vt 1.0000 0.0000
vt 0.0000 0.0000
vt 1.0000 0.0000
vt 0.0000 0.0000
vt 1.0000 1.0000
vt 1.0000 0.0000
vt 0.0000 0.0000
vt 1.0000 1.0000
vt 1.0000 1.0000
vt 1.0000 0.0000
vt 0.0000 0.0000
vt 1.0000 0.0000
vt 0.0000 0.0000
vt 1.0000 0.0000
vt 0.0000 0.0000
vt 1.0000 1.0000
vt 1.0000 0.0000
vt 0.0000 0.0000
vt 1.0000 1.0000
vt 1.0000 1.0000
vt 1.0000 0.0000
vt 0.0000 0.0000
vt 1.0000 0.0000
vt 0.0000 0.0000
vt 1.0000 0.0000
vt 0.0000 0.0000
vt 1.0000 1.0000
vt 1.0000 0.0000
vt 0.0000 0.0000
vt 1.0000 1.0000
vt 1.0000 1.0000
vt 1.0000 0.0000
vt 0.0000 0.0000
vt 1.0000 0.0000
vt 0.0000 0.0000
vt 1.0000 0.0000
vt 0.0000 0.0000
vt 1.0000 1.0000
vt 1.0000 0.0000
vt 0.0000 0.0000
vt 1.0000 0.0000
vt 1.0000 1.0000
vt 0.0000 0.0000
vt 0.0000 0.0000
vt 1.0000 0.0000
vt 0.0000 0.0000
vt 0.0000 0.0000
vt 1.0000 0.0000
vt 1.0000 1.0000
vt 1.0000 0.0000
vt 0.0000 0.0000
vt 1.0000 0.0000
vt 1.0000 1.0000
vt 0.0000 0.0000
vt 0.0000 0.0000
vt 1.0000 0.0000
vt 0.0000 0.0000
vt 0.0000 0.0000
vt 1.0000 0.0000
vt 1.0000 0.0000
vt 0.0000 0.0000
vt 1.0000 0.0000
vt 1.0000 1.0000
vt 0.0000 0.0000
vt 0.0000 0.0000
vt 1.0000 0.0000
vt 0.0000 0.0000
vt 0.0000 0.0000
vt 1.0000 0.0000
vt 1.0000 0.0000
vt 0.0000 0.0000
vt 1.0000 0.0000
vt 1.0000 1.0000
vt 0.0000 0.0000
vt 0.0000 0.0000
vt 1.0000 0.0000
vt 0.0000 0.0000
vt 0.0000 0.0000
vt 1.0000 0.0000
vt 1.0000 0.0000
vt 0.0000 0.0000
vt 1.0000 0.0000
vt 1.0000 1.0000
vt 0.0000 0.0000
vt 0.0000 0.0000
vt 1.0000 0.0000
vt 0.0000 0.0000
vt 0.0000 0.0000
vt 1.0000 0.0000
vt 1.0000 0.0000
vt 0.0000 0.0000
vt 1.0000 1.0000
vt 0.0000 0.0000
vt 0.0000 0.0000
vt 1.0000 1.0000
vt 0.0000 0.0000
vt 0.0000 0.0000
vt 1.0000 1.0000
vt 0.0000 0.0000
vt 0.0000 0.0000
vt 1.0000 1.0000
vt 0.0000 0.0000
vt 0.0000 0.0000
vt 1.0000 1.0000
vt 0.0000 0.0000
vt 0.0000 0.0000
vt 1.0000 1.0000
vt 0.0000 0.0000
vt 0.0000 0.0000
vt 1.0000 1.0000
vt 0.0000 0.0000
vt 0.0000 0.0000
vt 1.0000 1.0000
vt 0.0000 0.0000
vt 0.0000 0.0000
vt 1.0000 1.0000
vt 0.0000 0.0000
vt 0.0000 0.0000
vt 1.0000 1.0000
vt 0.0000 0.0000
vt 1.0000 1.0000
vt 1.0000 1.0000
vt 0.0000 0.0000
vt 1.0000 1.0000
vt 1.0000 1.0000
vt 0.0000 0.0000
vt 1.0000 1.0000
vt 1.0000 1.0000
vt 0.0000 0.0000
vt 1.0000 1.0000
vt 1.0000 1.0000
vt 0.0000 0.0000
vt 1.0000 1.0000
vt 1.0000 1.0000
vt 0.0000 0.0000
vt 0.0000 0.0000
vt 1.0000 1.0000
vt 0.0000 0.0000
vt 1.0000 1.0000
vt 1.0000 1.0000
vt 0.0000 0.0000
vt 1.0000 1.0000
vt 1.0000 1.0000
vt 0.0000 0.0000
vt 1.0000 1.0000
vt 1.0000 1.0000
vt 1.0000 1.0000
vt 1.0000 1.0000
vn 0.3063 -0.1360 0.9422
vn 0.1507 -0.7777 -0.6103
vn -0.8014 -0.1360 0.5824
vn -0.8014 -0.1360 -0.5824
vn 0.3063 -0.1360 -0.9422
vn 0.7630 0.2128 -0.6104
vn 0.8162 0.2129 0.5371
vn -0.2586 0.2131 0.9422
vn -0.9760 0.2130 0.0452
vn -0.3447 0.2128 -0.9143
vn 0.4569 0.8253 0.3319
vn -0.1746 0.8253 0.5371
vn -0.5647 0.8253 0.0000
vn -0.1746 0.8253 -0.5371
vn 0.4569 0.8253 -0.3319
vn 0.4805 0.7778 -0.4051
vn 0.5338 0.7778 0.3319
vn -0.1507 0.7777 0.6103
vn -0.6269 0.7778 0.0453
vn -0.2368 0.7778 -0.5821
vn 0.5366 0.1223 0.8349
vn 0.2195 0.3574 0.9078
vn 0.8514 -0.5071 -0.1338
vn 0.9599 0.1224 -0.2524
vn 0.9297 0.3603 0.0762
vn 0.1359 -0.5071 -0.8511
vn 0.0565 0.1224 -0.9909
vn 0.3588 0.3595 -0.8614
vn -0.7675 -0.5071 -0.3922
vn -0.9249 0.1224 -0.3600
vn -0.7078 0.3599 -0.6078
vn -0.6102 -0.5071 0.6087
vn -0.6282 0.1224 0.7684
vn -0.7969 0.3601 0.4851
vn 0.3904 -0.5071 0.7684
vn 0.5230 -0.7725 0.3600
vn 0.6385 -0.4717 0.6081
vn -0.1807 -0.7725 -0.6087
vn 0.5040 -0.7725 -0.3862
vn 0.7730 -0.4760 -0.4194
vn -0.6348 -0.7725 -0.0162
vn -0.2116 -0.7725 -0.5987
vn -0.1609 -0.4804 -0.8622
vn -0.2116 -0.7725 0.5987
vn -0.6348 -0.7725 0.0162
vn -0.8719 -0.4760 -0.1150
vn 0.5040 -0.7725 0.3862
vn -0.1807 -0.7725 0.6087
vn -0.3782 -0.4773 0.7932
vn 0.5230 -0.7725 -0.3600
vn 0.9684 0.1053 0.2262
vn 0.8719 0.4760 0.1150
vn 0.3389 -0.9132 0.2262
vn 0.5144 0.1053 -0.8511
vn 0.3781 0.4775 -0.7931
vn 0.3198 -0.9132 -0.2524
vn -0.6505 0.1053 -0.7522
vn -0.6384 0.4722 -0.6078
vn -0.1412 -0.9132 -0.3822
vn -0.9164 0.1053 0.3862
vn -0.7730 0.4760 0.4194
vn -0.4071 -0.9132 0.0162
vn 0.0841 0.1053 0.9909
vn 0.1609 0.4804 0.8622
vn -0.1104 -0.9132 0.3922
vn 0.3851 -0.5347 0.7522
vn 0.7078 -0.3600 0.6079
vn -0.7537 -0.5347 0.3822
vn 0.8344 -0.5347 -0.1338
vn 0.7969 -0.3601 -0.4851
vn 0.1306 -0.5347 0.8349
vn 0.1306 -0.5347 -0.8349
vn -0.2193 -0.3575 -0.9078
vn 0.8344 -0.5347 0.1338
vn 0.7675 0.5071 0.3922
vn 0.8340 0.5517 0.0000
vn -0.0565 -0.1224 0.9909
vn -0.7537 -0.5347 -0.3822
vn -0.9298 -0.3601 -0.0760
vn 0.3851 -0.5347 -0.7522
vn -0.1359 0.5071 0.8511
vn -0.5511 0.6066 -0.5730
vn -0.5338 -0.7778 0.3319
vn 0.2578 0.5517 0.7932
vn 0.1887 -0.7931 0.5791
vn 0.7082 -0.3596 -0.6075
vn 0.6269 -0.7778 -0.0453
vn 0.1090 0.6065 -0.7876
vn 0.6102 0.5071 0.6087
vn -0.0565 -0.1224 -0.9909
vn -0.2379 0.9713 0.0000
vn 0.9907 -0.1360 -0.0000
vn -0.3586 -0.3594 -0.8615
vn 0.6035 -0.7973 0.0000
vn -0.3586 -0.3594 0.8615
vn 0.1507 -0.7777 0.6103
vn -0.7153 0.6066 0.3471
vn -0.5964 -0.5347 -0.5987
vn -0.8514 0.5071 0.1338
vn 0.3748 0.6065 -0.7012
vn -0.4805 -0.7778 -0.4051
vn -0.6776 0.5517 0.4863
vn -0.4953 -0.7921 0.3566
vn 0.7970 -0.3602 0.4849
vn 0.2368 -0.7778 0.5821
vn 0.7827 0.6065 -0.1397
vn -0.3904 0.5071 0.7684
vn -0.3904 0.5071 -0.7684
vn 0.7827 0.6065 0.1397
vn 0.2368 -0.7778 -0.5821
vn -0.6777 0.5517 -0.4861
vn -0.4954 -0.7922 -0.3563
vn -0.2193 -0.3575 0.9078
vn -0.4805 -0.7778 0.4051
vn 0.3747 0.6065 0.7012
vn -0.8514 0.5071 -0.1338
vn 0.6102 0.5071 -0.6087
vn 0.1090 0.6065 0.7876
vn 0.6269 -0.7778 0.0453
vn 0.2586 0.5517 -0.7929
vn 0.1878 -0.7935 -0.5788
vn -0.9299 -0.3600 0.0758
vn -0.5338 -0.7778 -0.3319
vn -0.5511 0.6066 0.5730
vn -0.1359 0.5071 -0.8511
vn 0.2116 0.7725 -0.5987
vn -0.8624 0.3686 0.3470
vn 0.7630 0.2128 0.6104
vn 0.1609 0.4804 -0.8622
vn 0.9846 -0.1746 0.0000
vn -0.1205 -0.9927 0.0000
vn 0.5647 -0.8253 0.0000
vn -0.9751 -0.2216 0.0000
vn 0.0841 0.1053 -0.9909
vn 0.6348 0.7725 0.0162
vn -0.5965 0.3686 -0.7130
vn -0.3447 0.2128 0.9143
vn 0.8718 0.4762 -0.1150
vn 0.3100 -0.1770 0.9341
vn -0.0376 -0.9927 -0.1145
vn 0.1746 -0.8253 0.5371
vn -0.3014 -0.2216 -0.9274
vn 0.9684 0.1053 -0.2262
vn 0.1807 0.7725 0.6087
vn 0.4937 0.3686 -0.7876
vn -0.9760 0.2130 -0.0452
vn 0.3780 0.4777 0.7931
vn -0.7906 -0.1815 0.5848
vn 0.0937 -0.9927 -0.0761
vn -0.4569 -0.8253 0.3319
vn 0.7889 -0.2216 -0.5732
vn 0.5144 0.1053 0.8511
vn -0.5230 0.7725 0.3600
vn 0.9017 0.3686 0.2262
vn -0.2586 0.2131 -0.9422
vn -0.6385 0.4719 0.6080
vn -0.7911 -0.1817 -0.5841
vn 0.0937 -0.9927 0.0760
vn -0.4569 -0.8253 -0.3319
vn 0.7889 -0.2216 0.5732
vn -0.6505 0.1053 0.7522
vn -0.5040 0.7725 -0.3862
vn 0.0635 0.3687 0.9274
vn 0.8162 0.2129 -0.5371
vn -0.7730 0.4760 -0.4194
vn 0.3101 -0.1771 -0.9341
vn -0.0374 -0.9927 0.1145
vn 0.1746 -0.8253 -0.5371
vn -0.3014 -0.2216 0.9274
vn -0.9164 0.1053 -0.3862
vn -0.3198 0.9132 0.2524
vn -0.9017 -0.3686 -0.2262
vn 0.2586 -0.2131 0.9422
vn -0.0938 0.9927 -0.0760
vn 0.7913 0.1812 0.5839
vn 0.6385 -0.4720 -0.6079
vn 0.9760 -0.2130 -0.0452
vn -0.4937 -0.3686 -0.7876
vn 0.1412 0.9132 -0.3822
vn -0.3389 0.9132 -0.2262
vn -0.0635 -0.3687 -0.9274
vn -0.8162 -0.2129 0.5371
vn 0.0374 0.9927 -0.1145
vn -0.3101 0.1771 0.9341
vn 0.7730 -0.4760 0.4194
vn 0.3447 -0.2128 0.9143
vn 0.5965 -0.3686 -0.7130
vn 0.4071 0.9132 0.0162
vn 0.1104 0.9132 -0.3922
vn 0.8624 -0.3686 -0.3470
vn -0.7630 -0.2128 -0.6104
vn 0.1205 0.9927 0.0000
vn -0.9846 0.1746 0.0000
vn -0.1609 -0.4804 0.8622
vn -0.7630 -0.2128 0.6104
vn 0.8624 -0.3686 0.3470
vn 0.1104 0.9132 0.3922
vn 0.4071 0.9132 -0.0162
vn 0.5965 -0.3686 0.7130
vn 0.3447 -0.2128 -0.9143
vn 0.0376 0.9927 0.1145
vn -0.3102 0.1772 -0.9340
vn -0.8718 -0.4762 0.1150
vn -0.8162 -0.2129 -0.5371
vn -0.0635 -0.3687 0.9274
vn -0.3389 0.9132 0.2262
vn 0.1412 0.9132 0.3822
vn -0.4937 -0.3686 0.7876
vn 0.9760 -0.2130 0.0452
vn -0.0937 0.9927 0.0760
vn 0.7906 0.1824 -0.5845
vn -0.3779 -0.4779 -0.7930
vn 0.2586 -0.2131 -0.9422
vn -0.9017 -0.3686 0.2262
vn -0.3198 0.9132 -0.2524
vn -0.1306 0.5347 -0.8349
vn -0.7827 -0.6065 -0.1397
vn -0.2368 0.7778 0.5821
vn 0.2193 0.3575 -0.9078
vn 0.4954 0.7922 0.3563
vn 0.6777 -0.5517 0.4861
vn 0.8014 0.1360 0.5824
vn -0.1925 -0.9713 -0.1397
vn 0.5366 0.1223 -0.8349
vn 0.7537 0.5347 -0.3822
vn -0.1090 -0.6065 -0.7876
vn -0.6269 0.7778 -0.0453
vn 0.9298 0.3601 -0.0760
vn -0.1893 0.7933 0.5787
vn -0.2576 -0.5517 0.7932
vn -0.3063 0.1360 0.9422
vn 0.0736 -0.9713 -0.2262
vn 0.9599 0.1224 0.2524
vn 0.5964 0.5347 0.5987
vn 0.7153 -0.6066 -0.3471
vn -0.1507 0.7777 -0.6103
vn 0.3588 0.3595 0.8614
vn -0.6030 0.7977 0.0000
vn -0.8340 -0.5517 0.0000
vn -0.9907 0.1360 0.0000
vn 0.2379 -0.9713 -0.0000
vn 0.0565 0.1224 0.9909
vn -0.3851 0.5347 0.7522
vn 0.5511 -0.6066 0.5730
vn 0.5338 0.7778 -0.3319
vn -0.7080 0.3598 0.6077
vn -0.1892 0.7934 -0.5785
vn -0.2581 -0.5517 -0.7931
vn -0.3063 0.1360 -0.9422
vn 0.0736 -0.9713 0.2262
vn -0.9249 0.1224 0.3600
vn -0.8344 0.5347 -0.1338
vn -0.3747 -0.6065 0.7012
vn 0.4805 0.7778 0.4051
vn -0.7970 0.3602 -0.4849
vn 0.4959 0.7919 -0.3563
vn 0.6773 -0.5517 -0.4866
vn 0.8014 0.1360 -0.5824
vn -0.1925 -0.9713 0.1398
vn -0.6282 0.1223 -0.7684
vn -0.1306 0.5347 0.8349
vn -0.7827 -0.6065 0.1397
vn 0.3904 -0.5071 -0.7684
vn 0.7537 0.5347 0.3822
vn -0.1090 -0.6065 0.7876
vn -0.6102 -0.5071 -0.6087
vn 0.5964 0.5347 -0.5987
vn 0.7153 -0.6066 0.3471
vn -0.7675 -0.5071 0.3922
vn -0.3851 0.5347 -0.7522
vn 0.5511 -0.6066 -0.5730
vn 0.1359 -0.5071 0.8511
vn -0.8344 0.5347 0.1338
vn -0.3747 -0.6065 -0.7012
vn 0.8514 -0.5071 0.1338
vn 0.6505 -0.1053 0.7522
vn -0.7889 0.2216 0.5732
vn -0.5144 -0.1053 -0.8511
vn 0.9164 -0.1053 -0.3862
vn 0.3014 0.2216 0.9274
vn -0.9684 -0.1053 0.2262
vn -0.0841 -0.1053 -0.9909
vn 0.9751 0.2216 0.0000
vn -0.0841 -0.1053 0.9909
vn -0.9684 -0.1053 -0.2262
vn 0.3014 0.2216 -0.9274
vn 0.9164 -0.1053 0.3862
vn -0.5144 -0.1053 0.8511
vn -0.7889 0.2216 -0.5732
vn 0.6505 -0.1053 -0.7522
vn 0.6348 0.7725 -0.0162
vn -0.5965 0.3686 0.7130
vn -0.4071 -0.9132 -0.0162
vn 0.1807 0.7725 -0.6087
vn 0.4937 0.3686 0.7876
vn -0.1412 -0.9132 0.3822
vn -0.5230 0.7725 -0.3600
vn 0.9017 0.3686 -0.2262
vn 0.3198 -0.9132 0.2524
vn -0.5040 0.7725 0.3862
vn 0.0635 0.3687 -0.9274
vn 0.3389 -0.9132 -0.2262
vn 0.2116 0.7725 0.5987
vn -0.8624 0.3686 -0.3470
vn -0.1104 -0.9132 -0.3922
vn 0.9249 -0.1224 0.3600
vn -0.0736 0.9713 0.2262
vn -0.9599 -0.1224 -0.2524
vn 0.6282 -0.1224 -0.7684
vn 0.1925 0.9713 0.1398
vn -0.5366 -0.1223 0.8349
vn -0.5366 -0.1223 -0.8349
vn 0.1925 0.9713 -0.1398
vn 0.6282 -0.1224 0.7684
vn 0.7675 0.5071 -0.3922
vn -0.7153 0.6066 -0.3471
vn -0.5964 -0.5347 0.5987
vn -0.9599 -0.1224 0.2524
vn -0.0736 0.9713 -0.2262
vn 0.9249 -0.1224 -0.3600
usemtl None
s off
f 1/1/1 74/2/1 43/3/1
f 2/4/2 44/5/2 46/6/2
f 1/1/3 43/7/3 48/8/3
f 1/1/4 48/9/4 50/10/4
f 1/1/5 50/11/5 77/12/5
f 2/4/6 46/13/6 53/14/6
f 3/15/7 45/16/7 55/17/7
f 4/18/8 49/19/8 57/20/8
f 5/21/9 51/22/9 59/23/9
f 6/24/10 52/25/10 61/26/10
f 2/4/11 53/27/11 86/28/11
f 3/15/12 55/29/12 88/30/12
f 4/18/13 57/31/13 90/32/13
f 5/21/14 59/33/14 92/34/14
f 6/24/15 61/35/15 84/36/15
f 7/37/16 63/38/16 68/39/16
f 8/40/17 64/41/17 70/42/17
f 9/43/18 65/44/18 71/45/18
f 10/46/19 66/47/19 72/48/19
f 11/49/20 67/50/20 99/51/20
f 39/52/21 103/53/21 69/54/21
f 39/52/22 104/55/22 103/56/22
f 37/57/23 97/58/23 105/59/23
f 42/60/24 106/61/24 102/62/24
f 42/60/25 107/63/25 106/64/25
f 36/65/26 96/66/26 108/67/26
f 41/68/27 109/69/27 101/70/27
f 41/68/28 110/71/28 109/72/28
f 35/73/29 95/74/29 111/75/29
f 40/76/30 112/77/30 100/78/30
f 40/76/31 113/79/31 112/80/31
f 34/81/32 94/82/32 114/83/32
f 38/84/33 115/85/33 98/86/33
f 38/84/34 116/87/34 115/88/34
f 33/89/35 93/90/35 117/91/35
f 24/92/36 118/93/36 54/94/36
f 24/92/37 119/95/37 118/96/37
f 31/97/38 91/98/38 120/99/38
f 32/100/39 121/101/39 62/102/39
f 32/100/40 122/103/40 121/104/40
f 29/105/41 89/106/41 123/107/41
f 30/108/42 124/109/42 60/110/42
f 30/108/43 125/111/43 124/112/43
f 27/113/44 87/114/44 126/115/44
f 28/116/45 127/117/45 58/118/45
f 28/116/46 128/119/46 127/120/46
f 25/121/47 85/122/47 129/123/47
f 26/124/48 130/125/48 56/126/48
f 26/124/49 131/127/49 130/128/49
f 23/129/50 83/130/50 132/131/50
f 31/97/51 133/132/51 91/133/51
f 31/97/52 134/134/52 133/135/52
f 22/136/53 82/137/53 135/138/53
f 29/105/54 136/139/54 89/140/54
f 29/105/55 137/141/55 136/142/55
f 21/143/56 81/144/56 138/145/56
f 27/113/57 139/146/57 87/147/57
f 27/113/58 140/148/58 139/149/58
f 19/150/59 79/151/59 141/152/59
f 25/121/60 142/153/60 85/154/60
f 25/121/61 143/155/61 142/156/61
f 15/157/62 75/158/62 144/159/62
f 23/129/63 145/160/63 83/161/63
f 23/129/64 146/162/64 145/163/64
f 16/164/65 76/165/65 147/166/65
f 17/167/66 148/168/66 47/169/66
f 17/167/67 149/170/67 148/171/67
f 20/172/68 80/173/68 150/174/68
f 20/172/69 151/175/69 80/176/69
f 20/172/70 152/177/70 151/178/70
f 18/179/71 78/180/71 153/181/71
f 18/179/72 154/182/72 78/183/72
f 18/179/73 155/184/73 154/185/73
f 13/186/74 73/187/74 156/188/74
f 16/164/75 157/189/75 76/190/75
f 16/164/76 158/191/76 157/192/76
f 14/193/77 74/2/77 159/194/77
f 13/186/78 160/195/78 73/196/78
f 13/186/79 161/197/79 160/198/79
f 14/193/80 44/5/80 162/199/80
f 162/200/81 75/158/81 15/201/81
f 162/200/82 44/5/82 75/202/82
f 44/203/83 2/204/83 75/202/83
f 160/205/84 162/206/84 15/201/84
f 160/205/85 161/197/85 162/199/85
f 161/207/86 14/208/86 162/199/86
f 73/209/87 45/16/87 3/210/87
f 73/209/88 160/195/88 45/211/88
f 160/205/89 15/212/89 45/211/89
f 159/213/90 77/214/90 17/215/90
f 159/213/91 74/2/91 77/12/91
f 74/216/92 1/217/92 77/12/92
f 157/218/93 159/219/93 17/215/93
f 157/218/94 158/191/94 159/194/94
f 158/220/95 14/208/95 159/194/95
f 76/221/96 47/222/96 6/223/96
f 76/221/97 157/189/97 47/169/97
f 157/218/98 17/224/98 47/169/98
f 156/225/99 79/151/99 19/226/99
f 156/225/100 73/187/100 79/227/100
f 73/209/101 3/228/101 79/227/101
f 154/229/102 156/230/102 19/226/102
f 154/229/103 155/184/103 156/188/103
f 155/231/104 13/232/104 156/188/104
f 78/233/105 49/19/105 4/234/105
f 78/233/106 154/182/106 49/235/106
f 154/229/107 19/236/107 49/235/107
f 153/237/108 81/144/108 21/238/108
f 153/237/109 78/180/109 81/239/109
f 78/233/110 4/240/110 81/239/110
f 151/241/111 153/242/111 21/238/111
f 151/241/112 152/177/112 153/181/112
f 152/243/113 18/244/113 153/181/113
f 80/245/114 51/22/114 5/246/114
f 80/245/115 151/175/115 51/247/115
f 151/241/116 21/248/116 51/247/116
f 150/249/117 82/137/117 22/250/117
f 150/249/118 80/173/118 82/251/118
f 80/245/119 5/252/119 82/251/119
f 148/253/120 150/254/120 22/250/120
f 148/253/121 149/170/121 150/174/121
f 149/255/122 20/256/122 150/174/122
f 47/257/123 52/25/123 6/223/123
f 47/257/124 148/168/124 52/258/124
f 148/253/125 22/259/125 52/258/125
f 147/260/126 84/261/126 24/262/126
f 147/260/127 76/165/127 84/36/127
f 76/221/128 6/263/128 84/36/128
f 145/264/129 147/265/129 24/262/129
f 145/264/130 146/162/130 147/166/130
f 146/266/131 16/267/131 147/166/131
f 83/268/132 54/269/132 11/270/132
f 83/268/133 145/160/133 54/94/133
f 145/264/134 24/271/134 54/94/134
f 144/272/135 86/273/135 26/274/135
f 144/272/136 75/158/136 86/28/136
f 75/275/137 2/204/137 86/28/137
f 142/276/138 144/277/138 26/274/138
f 142/276/139 143/155/139 144/159/139
f 143/278/140 15/212/140 144/159/140
f 85/279/141 56/280/141 7/281/141
f 85/279/142 142/153/142 56/126/142
f 142/276/143 26/282/143 56/126/143
f 141/283/144 88/284/144 28/285/144
f 141/283/145 79/151/145 88/30/145
f 79/286/146 3/228/146 88/30/146
f 139/287/147 141/288/147 28/285/147
f 139/287/148 140/148/148 141/152/148
f 140/289/149 19/236/149 141/152/149
f 87/290/150 58/291/150 8/292/150
f 87/290/151 139/146/151 58/118/151
f 139/287/152 28/293/152 58/118/152
f 138/294/153 90/295/153 30/296/153
f 138/294/154 81/144/154 90/32/154
f 81/297/155 4/240/155 90/32/155
f 136/298/156 138/299/156 30/296/156
f 136/298/157 137/141/157 138/145/157
f 137/300/158 21/248/158 138/145/158
f 89/301/159 60/302/159 9/303/159
f 89/301/160 136/139/160 60/110/160
f 136/298/161 30/304/161 60/110/161
f 135/305/162 92/306/162 32/307/162
f 135/305/163 82/137/163 92/34/163
f 82/308/164 5/252/164 92/34/164
f 133/309/165 135/310/165 32/307/165
f 133/309/166 134/134/166 135/138/166
f 134/311/167 22/259/167 135/138/167
f 91/312/168 62/313/168 10/314/168
f 91/312/169 133/132/169 62/102/169
f 133/309/170 32/315/170 62/102/170
f 132/316/171 93/90/171 33/317/171
f 132/316/172 83/130/172 93/318/172
f 83/268/173 11/319/173 93/318/173
f 130/320/174 132/321/174 33/317/174
f 130/320/175 131/127/175 132/131/175
f 131/322/176 23/323/176 132/131/176
f 56/324/177 63/38/177 7/281/177
f 56/324/178 130/125/178 63/325/178
f 130/320/179 33/326/179 63/325/179
f 129/327/180 94/82/180 34/328/180
f 129/327/181 85/122/181 94/329/181
f 85/279/182 7/330/182 94/329/182
f 127/331/183 129/332/183 34/328/183
f 127/331/184 128/119/184 129/123/184
f 128/333/185 25/334/185 129/123/185
f 58/335/186 64/41/186 8/292/186
f 58/335/187 127/117/187 64/336/187
f 127/331/188 34/337/188 64/336/188
f 126/338/189 95/74/189 35/339/189
f 126/338/190 87/114/190 95/340/190
f 87/290/191 8/341/191 95/340/191
f 124/342/192 126/343/192 35/339/192
f 124/342/193 125/111/193 126/115/193
f 125/344/194 27/345/194 126/115/194
f 60/346/195 65/44/195 9/303/195
f 60/346/196 124/109/196 65/347/196
f 124/342/197 35/348/197 65/347/197
f 123/349/198 96/66/198 36/350/198
f 123/349/199 89/106/199 96/351/199
f 89/301/200 9/352/200 96/351/200
f 121/353/201 123/354/201 36/350/201
f 121/353/202 122/103/202 123/107/202
f 122/355/203 29/356/203 123/107/203
f 62/357/204 66/47/204 10/314/204
f 62/357/205 121/101/205 66/358/205
f 121/353/206 36/359/206 66/358/206
f 120/360/207 97/58/207 37/361/207
f 120/360/208 91/98/208 97/362/208
f 91/312/209 10/363/209 97/362/209
f 118/364/210 120/365/210 37/361/210
f 118/364/211 119/95/211 120/99/211
f 119/366/212 31/367/212 120/99/212
f 54/368/213 67/50/213 11/270/213
f 54/368/214 118/93/214 67/369/214
f 118/364/215 37/370/215 67/369/215
f 117/371/216 99/372/216 39/373/216
f 117/371/217 93/90/217 99/51/217
f 93/374/218 11/319/218 99/51/218
f 115/375/219 117/376/219 39/373/219
f 115/375/220 116/87/220 117/91/220
f 116/377/221 33/326/221 117/91/221
f 98/378/222 69/379/222 12/380/222
f 98/378/223 115/85/223 69/54/223
f 115/375/224 39/381/224 69/54/224
f 114/382/225 68/383/225 38/384/225
f 114/382/226 94/82/226 68/39/226
f 94/385/227 7/330/227 68/39/227
f 112/386/228 114/387/228 38/384/228
f 112/386/229 113/79/229 114/83/229
f 113/388/230 34/337/230 114/83/230
f 100/389/231 98/390/231 12/380/231
f 100/389/232 112/77/232 98/86/232
f 112/386/233 38/391/233 98/86/233
f 111/392/234 70/393/234 40/394/234
f 111/392/235 95/74/235 70/42/235
f 95/395/236 8/341/236 70/42/236
f 109/396/237 111/397/237 40/394/237
f 109/396/238 110/71/238 111/75/238
f 110/398/239 35/348/239 111/75/239
f 101/399/240 100/400/240 12/380/240
f 101/399/241 109/69/241 100/78/241
f 109/396/242 40/401/242 100/78/242
f 108/402/243 71/403/243 41/404/243
f 108/402/244 96/66/244 71/45/244
f 96/405/245 9/352/245 71/45/245
f 106/406/246 108/407/246 41/404/246
f 106/406/247 107/63/247 108/67/247
f 107/408/248 36/359/248 108/67/248
f 102/409/249 101/410/249 12/380/249
f 102/409/250 106/61/250 101/70/250
f 106/406/251 41/411/251 101/70/251
f 105/412/252 72/413/252 42/414/252
f 105/412/253 97/58/253 72/48/253
f 97/415/254 10/363/254 72/48/254
f 103/416/255 105/417/255 42/414/255
f 103/416/256 104/55/256 105/59/256
f 104/418/257 37/370/257 105/59/257
f 69/419/258 102/420/258 12/380/258
f 69/419/259 103/53/259 102/62/259
f 103/416/260 42/421/260 102/62/260
f 99/422/261 104/55/261 39/373/261
f 99/422/262 67/50/262 104/423/262
f 67/424/263 37/370/263 104/423/263
f 72/425/264 107/63/264 42/414/264
f 72/425/265 66/47/265 107/426/265
f 66/427/266 36/359/266 107/426/266
f 71/428/267 110/71/267 41/404/267
f 71/428/268 65/44/268 110/429/268
f 65/430/269 35/348/269 110/429/269
f 70/431/270 113/79/270 40/394/270
f 70/431/271 64/41/271 113/432/271
f 64/433/272 34/337/272 113/432/272
f 68/434/273 116/87/273 38/384/273
f 68/434/274 63/38/274 116/435/274
f 63/436/275 33/326/275 116/435/275
f 84/437/276 119/95/276 24/262/276
f 84/437/277 61/35/277 119/438/277
f 61/439/278 31/367/278 119/438/278
f 92/440/279 122/103/279 32/307/279
f 92/440/280 59/33/280 122/441/280
f 59/442/281 29/356/281 122/441/281
f 90/443/282 125/111/282 30/296/282
f 90/443/283 57/31/283 125/444/283
f 57/445/284 27/345/284 125/444/284
f 88/446/285 128/119/285 28/285/285
f 88/446/286 55/29/286 128/447/286
f 55/448/287 25/334/287 128/447/287
f 86/449/288 131/127/288 26/274/288
f 86/449/289 53/27/289 131/450/289
f 53/451/290 23/323/290 131/450/290
f 61/439/291 134/134/291 31/452/291
f 61/439/292 52/25/292 134/453/292
f 52/454/293 22/259/293 134/453/293
f 59/442/294 137/141/294 29/455/294
f 59/442/295 51/22/295 137/456/295
f 51/457/296 21/248/296 137/456/296
f 57/445/297 140/148/297 27/458/297
f 57/445/298 49/19/298 140/459/298
f 49/460/299 19/236/299 140/459/299
f 55/448/300 143/155/300 25/461/300
f 55/448/301 45/16/301 143/462/301
f 45/463/302 15/212/302 143/462/302
f 53/451/303 146/162/303 23/464/303
f 53/451/304 46/13/304 146/465/304
f 46/466/305 16/267/305 146/465/305
f 77/467/306 149/170/306 17/215/306
f 77/467/307 50/11/307 149/468/307
f 50/469/308 20/256/308 149/468/308
f 50/469/309 152/177/309 20/470/309
f 50/469/310 48/9/310 152/471/310
f 48/472/311 18/244/311 152/471/311
f 48/472/312 155/184/312 18/473/312
f 48/472/313 43/7/313 155/474/313
f 43/475/314 13/232/314 155/474/314
f 46/466/315 158/191/315 16/476/315
f 46/466/316 44/5/316 158/477/316
f 44/203/317 14/208/317 158/477/317
f 43/475/318 161/197/318 13/478/318
f 43/475/319 74/2/319 161/479/319
f 74/216/320 14/208/320 161/479/320
